# toc
# 1 Projectidee (DB_01) x
# 2 Algemeinses x
# 3 Vorteile x
# 4 Projektplanung und -durchführung x
# 5 Herausvorderungen x 
# 6 Technische Details (Kurzbeschreibung des Lösungswegs)x
# 7 Konkurrenzanalyse x 
# 8 Finanzierung
# 9 Projektergebnis(se), Schlussfolgerung
# 10 Bericht des Projektkoordinators
## Zusammenarbeit im Team (DA)
## Zusammenarbeit mit unserem Betreuer
# 11 Kontakt