<?xml version="1.0"?>
<svg xmlns="http://www.w3.org/2000/svg" xmlns:xlink="http://www.w3.org/1999/xlink" xmlns:lucid="lucid" width="1518" height="840">
  <g transform="translate(-40 0)">
    <path d="M0 0h1870.4v1323.2H0z" fill="#fff"/>
    <path d="M860 480h160v120H860z" stroke="#000" stroke-width="2" fill="#fff"/>
    <use xlink:href="#a" transform="matrix(1,0,0,1,865,485) translate(60.5 58.6)"/>
    <path d="M477.4 480h160v120h-160z" stroke="#000" stroke-width="2" fill="#fff"/>
    <use xlink:href="#b" transform="matrix(1,0,0,1,482.39999999999986,485) translate(55.55 58.6)"/>
    <path d="M477.4 260h160v120h-160z" stroke="#000" stroke-width="2" fill="#fff"/>
    <use xlink:href="#c" transform="matrix(1,0,0,1,482.39999999999986,265) translate(46.25 58.6)"/>
    <path d="M80 480h160v120H80z" stroke="#000" stroke-width="2" fill="#fff"/>
    <use xlink:href="#d" transform="matrix(1,0,0,1,85,485) translate(46.55 58.6)"/>
    <path d="M605.4 720c17.67 0 32 17.9 32 40s-14.33 40-32 40h-96c-17.67 0-32-17.9-32-40s14.33-40 32-40z" stroke="#000" stroke-width="2" fill="#fff"/>
    <use xlink:href="#e" transform="matrix(1,0,0,1,482.39999999999986,725) translate(43.574999999999996 38.6)"/>
    <path d="M208 280c17.67 0 32 17.9 32 40s-14.33 40-32 40h-96c-17.67 0-32-17.9-32-40s14.33-40 32-40z" stroke="#000" stroke-width="2" fill="#fff"/>
    <use xlink:href="#f" transform="matrix(1,0,0,1,85,285) translate(35.525 38.6)"/>
    <path d="M1358.4 480h160v120h-160z" stroke="#000" stroke-width="2" fill="#fff"/>
    <use xlink:href="#g" transform="matrix(1,0,0,1,1363.3999999999999,485) translate(11.299999999999997 58.6)"/>
    <path d="M1339.16 540H1200v52.6" stroke="#000" stroke-width="2" fill="none"/>
    <path d="M1354.16 540l-14.26 4.64v-9.28z"/>
    <path d="M1357.4 540l-18.5 6v-12zm-16.5 3.26l10.03-3.26-10.03-3.26z"/>
    <path/>
    <path d="M1200 592.6V540h-160.76" stroke="#000" stroke-width="2" fill="none"/>
    <path/>
    <path d="M1038.5 544.64l-14.26-4.64 14.26-4.64z"/>
    <path d="M1039.5 546l-18.5-6 18.5-6zm-12.03-6l10.03 3.26v-6.52z"/>
    <path d="M840.76 540H656.64" stroke="#000" stroke-width="2" fill="none"/>
    <path d="M855.76 540l-14.26 4.64v-9.28z"/>
    <path d="M859 540l-18.5 6v-12zm-16.5 3.26l10.03-3.26-10.03-3.26zM655.9 544.64L641.64 540l14.26-4.64z"/>
    <path d="M656.9 546l-18.5-6 18.5-6zm-12.03-6l10.03 3.26v-6.52z"/>
    <path d="M476.4 540H259.24" stroke="#000" stroke-width="2" fill="none"/>
    <path d="M477.4 541h-1v-2h1zM258.5 544.64L244.24 540l14.26-4.64z"/>
    <path d="M259.5 546l-18.5-6 18.5-6zm-12.03-6l10.03 3.26v-6.52z"/>
    <use xlink:href="#h" transform="matrix(1,0,0,1,300.8499999999999,544) translate(0 14.4)"/>
    <use xlink:href="#i" transform="matrix(1,0,0,1,300.8499999999999,544) translate(56.800000000000004 14.4)"/>
    <path d="M161 460.76h-2V421.6h2zm0-60.76h-2v-20.76h2zM160 475.76l-4.64-14.26h9.28z"/>
    <path d="M160 479l-6-18.5h12zm-3.26-16.5l3.26 10.03 3.26-10.03zM164.64 378.5h-9.28l4.64-14.26z"/>
    <path d="M166 379.5h-12l6-18.5zm-9.26-2h6.52L160 367.47z"/>
    <use xlink:href="#j" transform="matrix(1,0,0,1,103.57499999999999,399.9950194463938) translate(0 14.4)"/>
    <use xlink:href="#k" transform="matrix(1,0,0,1,103.57499999999999,399.9950194463938) translate(30.900000000000002 14.4)"/>
    <path d="M259.24 320h198.92" stroke="#000" stroke-width="2" fill="none"/>
    <path d="M258.5 324.64L244.24 320l14.26-4.64z"/>
    <path d="M259.5 326l-18.5-6 18.5-6zm-12.03-6l10.03 3.26v-6.52zM473.16 320l-14.26 4.64v-9.28z"/>
    <path d="M476.4 320l-18.5 6v-12zm-16.5 3.26l10.03-3.26-10.03-3.26z"/>
    <use xlink:href="#j" transform="matrix(1,0,0,1,302.2753113502802,294.4) translate(0 14.4)"/>
    <use xlink:href="#k" transform="matrix(1,0,0,1,302.2753113502802,294.4) translate(30.900000000000002 14.4)"/>
    <path d="M859.57 509.85l-1.14 1.64-96.07-67.37h3.5zm-124.53-87.32h-3.5l-78.78-55.24 1.15-1.65zM655.4 362.25l-5.33 7.6-9.02-12z"/>
    <path d="M657 361.7l-6.9 9.84L638.4 356zm-6.96 6.44l3.74-5.34-10.08-3.08zM860 510.15v2.44l-1.57-1.1 1.14-1.65z"/>
    <use xlink:href="#l" transform="matrix(1,0,0,1,698.7499999999999,422.5333333333333) translate(0 14.4)"/>
    <use xlink:href="#k" transform="matrix(1,0,0,1,698.7499999999999,422.5333333333333) translate(17.950000000000003 14.4)"/>
    <path d="M941 460.76h-2v-14.92h2zm0-36.52h-2V361h2zM941 361h-2v-1h2zM940 475.76l-4.64-14.26h9.28z"/>
    <path d="M940 479l-6-18.5h12zm-3.26-16.5l3.26 10.03 3.26-10.03z"/>
    <use xlink:href="#m" transform="matrix(1,0,0,1,890.05,424.23751729114224) translate(0 14.4)"/>
    <use xlink:href="#k" transform="matrix(1,0,0,1,890.05,424.23751729114224) translate(17.950000000000003 14.4)"/>
    <path d="M558.4 479h-2v-38.2h2zm0-59.8h-2v-19.96h2zM558.4 480h-2v-1h2zM562.04 398.5h-9.28l4.64-14.26z"/>
    <path d="M563.4 399.5h-12l6-18.5zm-9.26-2h6.52l-3.26-10.03z"/>
    <use xlink:href="#m" transform="matrix(1,0,0,1,529.4749999999999,419.2) translate(0 14.4)"/>
    <use xlink:href="#n" transform="matrix(1,0,0,1,529.4749999999999,419.2) translate(17.950000000000003 14.4)"/>
    <path d="M1080 592.6h240v74.8h-240z" stroke="#000" stroke-opacity="0" stroke-width="2" fill="#fff" fill-opacity="0"/>
    <use xlink:href="#o" transform="matrix(1,0,0,1,1085,597.6) translate(32.05 25.299999999999997)"/>
    <use xlink:href="#p" transform="matrix(1,0,0,1,1085,597.6) translate(76.05 25.299999999999997)"/>
    <use xlink:href="#q" transform="matrix(1,0,0,1,1085,597.6) translate(86.05 25.299999999999997)"/>
    <use xlink:href="#r" transform="matrix(1,0,0,1,1085,597.6) translate(116 25.299999999999997)"/>
    <use xlink:href="#s" transform="matrix(1,0,0,1,1085,597.6) translate(63.14999999999999 46.9)"/>
    <use xlink:href="#t" transform="matrix(1,0,0,1,1085,597.6) translate(119.94999999999999 46.9)"/>
    <path d="M558.4 700.76h-2V670.8h2zm0-51.56h-2v-29.96h2zM562.04 618.5h-9.28l4.64-14.26z"/>
    <path d="M563.4 619.5h-12l6-18.5zm-9.26-2h6.52l-3.26-10.03zM557.4 715.76l-4.64-14.26h9.28z"/>
    <path d="M557.4 719l-6-18.5h12zm-3.26-16.5l3.26 10.03 3.26-10.03z"/>
    <use xlink:href="#h" transform="matrix(1,0,0,1,505.54999999999984,649.2) translate(0 14.4)"/>
    <use xlink:href="#u" transform="matrix(1,0,0,1,505.54999999999984,649.2) translate(56.800000000000004 14.4)"/>
    <path d="M988 280c17.67 0 32 17.9 32 40s-14.33 40-32 40h-96c-17.67 0-32-17.9-32-40s14.33-40 32-40z" stroke="#000" stroke-width="2" fill="#fff"/>
    <use xlink:href="#v" transform="matrix(1,0,0,1,865,285) translate(21.549999999999997 38.6)"/>
    <path d="M840.76 320H656.64" stroke="#000" stroke-width="2" fill="none"/>
    <path d="M855.76 320l-14.26 4.64v-9.28z"/>
    <path d="M859 320l-18.5 6v-12zm-16.5 3.26l10.03-3.26-10.03-3.26zM655.9 324.64L641.64 320l14.26-4.64z"/>
    <path d="M656.9 326l-18.5-6 18.5-6zm-12.03-6l10.03 3.26v-6.52z"/>
    <g>
      <use xlink:href="#j" transform="matrix(1,0,0,1,692.2746886497197,294.4) translate(0 14.4)"/>
      <use xlink:href="#k" transform="matrix(1,0,0,1,692.2746886497197,294.4) translate(30.900000000000002 14.4)"/>
    </g>
    <path d="M1040 260h180v60h-180z" stroke="#000" stroke-opacity="0" stroke-width="2" fill="#fff" fill-opacity="0"/>
    <g>
      <use xlink:href="#w" transform="matrix(1,0,0,1,1045,265) translate(8.674999999999983 17.799999999999997)"/>
      <use xlink:href="#x" transform="matrix(1,0,0,1,1045,265) translate(92.475 17.799999999999997)"/>
      <use xlink:href="#y" transform="matrix(1,0,0,1,1045,265) translate(123.425 17.799999999999997)"/>
      <use xlink:href="#z" transform="matrix(1,0,0,1,1045,265) translate(8.125 39.4)"/>
      <use xlink:href="#A" transform="matrix(1,0,0,1,1045,265) translate(37.025000000000006 39.4)"/>
      <use xlink:href="#B" transform="matrix(1,0,0,1,1045,265) translate(79.925 39.4)"/>
    </g>
    <path d="M658.7 540h180v60h-180z" stroke="#000" stroke-opacity="0" stroke-width="2" fill="#fff" fill-opacity="0"/>
    <g>
      <use xlink:href="#s" transform="matrix(1,0,0,1,663.6999999999998,545) translate(33.14999999999999 17.799999999999997)"/>
      <use xlink:href="#C" transform="matrix(1,0,0,1,663.6999999999998,545) translate(89.94999999999999 17.799999999999997)"/>
      <use xlink:href="#D" transform="matrix(1,0,0,1,663.6999999999998,545) translate(13.149999999999991 39.4)"/>
      <use xlink:href="#E" transform="matrix(1,0,0,1,663.6999999999998,545) translate(44.05 39.4)"/>
      <use xlink:href="#F" transform="matrix(1,0,0,1,663.6999999999998,545) translate(86.95 39.4)"/>
      <use xlink:href="#G" transform="matrix(1,0,0,1,663.6999999999998,545) translate(106.95 39.4)"/>
    </g>
    <g fill="none">
      <path d="M1013.98 160v75.43H80V160z"/>
      <path d="M80 235.43c0-32.24 26.13-58.37 58.37-58.37h350.25c32.23 0 58.37-26.14 58.37-58.38 0 32.24 26.12 58.38 58.36 58.38H955.6c32.24 0 58.38 26.13 58.38 58.37" stroke="#000" stroke-width="2"/>
    </g>
    <path d="M427 60h240v60H427z" stroke="#000" stroke-opacity="0" stroke-width="2" fill="#fff" fill-opacity="0"/>
    <g>
      <use xlink:href="#H" transform="matrix(1,0,0,1,431.9887348682387,65) translate(54.275 28.6)"/>
      <use xlink:href="#I" transform="matrix(1,0,0,1,431.9887348682387,65) translate(97.875 28.6)"/>
      <use xlink:href="#J" transform="matrix(1,0,0,1,431.9887348682387,65) translate(108.82499999999999 28.6)"/>
    </g>
    <defs>
      <path d="M205 0l-28-72H64L36 0H1l101-248h38L239 0h-34zm-38-99l-47-123c-12 45-31 82-46 123h93" id="K"/>
      <path d="M30-248c87 1 191-15 191 75 0 78-77 80-158 76V0H30v-248zm33 125c57 0 124 11 124-50 0-59-68-47-124-48v98" id="L"/>
      <path d="M33 0v-248h34V0H33" id="M"/>
      <g id="a">
        <use transform="matrix(0.05,0,0,0.05,0,0)" xlink:href="#K"/>
        <use transform="matrix(0.05,0,0,0.05,12,0)" xlink:href="#L"/>
        <use transform="matrix(0.05,0,0,0.05,24,0)" xlink:href="#M"/>
      </g>
      <path d="M212-179c-10-28-35-45-73-45-59 0-87 40-87 99 0 60 29 101 89 101 43 0 62-24 78-52l27 14C228-24 195 4 139 4 59 4 22-46 18-125c-6-104 99-153 187-111 19 9 31 26 39 46" id="N"/>
      <path d="M100-194c62-1 85 37 85 99 1 63-27 99-86 99S16-35 15-95c0-66 28-99 85-99zM99-20c44 1 53-31 53-75 0-43-8-75-51-75s-53 32-53 75 10 74 51 75" id="O"/>
      <path d="M114-163C36-179 61-72 57 0H25l-1-190h30c1 12-1 29 2 39 6-27 23-49 58-41v29" id="P"/>
      <path d="M100-194c63 0 86 42 84 106H49c0 40 14 67 53 68 26 1 43-12 49-29l28 8c-11 28-37 45-77 45C44 4 14-33 15-96c1-61 26-98 85-98zm52 81c6-60-76-77-97-28-3 7-6 17-6 28h103" id="Q"/>
      <g id="b">
        <use transform="matrix(0.05,0,0,0.05,0,0)" xlink:href="#N"/>
        <use transform="matrix(0.05,0,0,0.05,12.950000000000001,0)" xlink:href="#O"/>
        <use transform="matrix(0.05,0,0,0.05,22.950000000000003,0)" xlink:href="#P"/>
        <use transform="matrix(0.05,0,0,0.05,28.900000000000002,0)" xlink:href="#Q"/>
      </g>
      <path d="M266 0h-40l-56-210L115 0H75L2-248h35L96-30l15-64 43-154h32l59 218 59-218h35" id="R"/>
      <path d="M143 0L79-87 56-68V0H24v-261h32v163l83-92h37l-77 82L181 0h-38" id="S"/>
      <g id="c">
        <use transform="matrix(0.05,0,0,0.05,0,0)" xlink:href="#R"/>
        <use transform="matrix(0.05,0,0,0.05,16.599999999999998,0)" xlink:href="#O"/>
        <use transform="matrix(0.05,0,0,0.05,26.599999999999994,0)" xlink:href="#P"/>
        <use transform="matrix(0.05,0,0,0.05,32.55,0)" xlink:href="#S"/>
        <use transform="matrix(0.05,0,0,0.05,41.55,0)" xlink:href="#Q"/>
        <use transform="matrix(0.05,0,0,0.05,51.54999999999999,0)" xlink:href="#P"/>
      </g>
      <path d="M80-196l47-18 7 23-49 13 32 44-20 13-27-46-27 45-21-12 33-44-49-13 8-23 47 19-2-53h23" id="T"/>
      <path d="M24 0v-261h32V0H24" id="U"/>
      <path d="M84 4C-5 8 30-112 23-190h32v120c0 31 7 50 39 49 72-2 45-101 50-169h31l1 190h-30c-1-10 1-25-2-33-11 22-28 36-60 37" id="V"/>
      <path d="M177-190C167-65 218 103 67 71c-23-6-38-20-44-43l32-5c15 47 100 32 89-28v-30C133-14 115 1 83 1 29 1 15-40 15-95c0-56 16-97 71-98 29-1 48 16 59 35 1-10 0-23 2-32h30zM94-22c36 0 50-32 50-73 0-42-14-75-50-75-39 0-46 34-46 75s6 73 46 73" id="W"/>
      <path d="M24-231v-30h32v30H24zM24 0v-190h32V0H24" id="X"/>
      <path d="M117-194c89-4 53 116 60 194h-32v-121c0-31-8-49-39-48C34-167 62-67 57 0H25l-1-190h30c1 10-1 24 2 32 11-22 29-35 61-36" id="Y"/>
      <g id="d">
        <use transform="matrix(0.05,0,0,0.05,0,0)" xlink:href="#T"/>
        <use transform="matrix(0.05,0,0,0.05,7,0)" xlink:href="#L"/>
        <use transform="matrix(0.05,0,0,0.05,19,0)" xlink:href="#U"/>
        <use transform="matrix(0.05,0,0,0.05,22.95,0)" xlink:href="#V"/>
        <use transform="matrix(0.05,0,0,0.05,32.95,0)" xlink:href="#W"/>
        <use transform="matrix(0.05,0,0,0.05,42.95,0)" xlink:href="#X"/>
        <use transform="matrix(0.05,0,0,0.05,46.900000000000006,0)" xlink:href="#Y"/>
      </g>
      <path d="M232-93c-1 65-40 97-104 97C67 4 28-28 28-90v-158h33c8 89-33 224 67 224 102 0 64-133 71-224h33v155" id="Z"/>
      <path d="M135-143c-3-34-86-38-87 0 15 53 115 12 119 90S17 21 10-45l28-5c4 36 97 45 98 0-10-56-113-15-118-90-4-57 82-63 122-42 12 7 21 19 24 35" id="aa"/>
      <path d="M30-248c118-7 216 8 213 122C240-48 200 0 122 0H30v-248zM63-27c89 8 146-16 146-99s-60-101-146-95v194" id="ab"/>
      <path d="M160-131c35 5 61 23 61 61C221 17 115-2 30 0v-248c76 3 177-17 177 60 0 33-19 50-47 57zm-97-11c50-1 110 9 110-42 0-47-63-36-110-37v79zm0 115c55-2 124 14 124-45 0-56-70-42-124-44v89" id="ac"/>
      <g id="e">
        <use transform="matrix(0.05,0,0,0.05,0,0)" xlink:href="#Z"/>
        <use transform="matrix(0.05,0,0,0.05,12.950000000000001,0)" xlink:href="#aa"/>
        <use transform="matrix(0.05,0,0,0.05,21.950000000000003,0)" xlink:href="#Q"/>
        <use transform="matrix(0.05,0,0,0.05,31.950000000000003,0)" xlink:href="#P"/>
        <use transform="matrix(0.05,0,0,0.05,37.900000000000006,0)" xlink:href="#ab"/>
        <use transform="matrix(0.05,0,0,0.05,50.85000000000001,0)" xlink:href="#ac"/>
      </g>
      <path d="M140-251c81 0 123 46 123 126C263-53 228-8 163 1c7 30 30 48 69 40v23c-55 16-95-15-103-61C56-3 17-48 17-125c0-80 42-126 123-126zm0 227c63 0 89-41 89-101s-29-99-89-99c-61 0-89 39-89 99S79-25 140-24" id="ad"/>
      <g id="f">
        <use transform="matrix(0.05,0,0,0.05,0,0)" xlink:href="#ad"/>
        <use transform="matrix(0.05,0,0,0.05,14,0)" xlink:href="#V"/>
        <use transform="matrix(0.05,0,0,0.05,24,0)" xlink:href="#Q"/>
        <use transform="matrix(0.05,0,0,0.05,34,0)" xlink:href="#V"/>
        <use transform="matrix(0.05,0,0,0.05,44,0)" xlink:href="#Q"/>
        <use transform="matrix(0.05,0,0,0.05,54,0)" xlink:href="#ab"/>
        <use transform="matrix(0.05,0,0,0.05,66.95,0)" xlink:href="#ac"/>
      </g>
      <path d="M115-194c53 0 69 39 70 98 0 66-23 100-70 100C84 3 66-7 56-30L54 0H23l1-261h32v101c10-23 28-34 59-34zm-8 174c40 0 45-34 45-75 0-40-5-75-45-74-42 0-51 32-51 76 0 43 10 73 51 73" id="ae"/>
      <path d="M115-194c55 1 70 41 70 98S169 2 115 4C84 4 66-9 55-30l1 105H24l-1-265h31l2 30c10-21 28-34 59-34zm-8 174c40 0 45-34 45-75s-6-73-45-74c-42 0-51 32-51 76 0 43 10 73 51 73" id="af"/>
      <path d="M16-82v-28h88v28H16" id="ag"/>
      <path d="M59-47c-2 24 18 29 38 22v24C64 9 27 4 27-40v-127H5v-23h24l9-43h21v43h35v23H59v120" id="ah"/>
      <g id="g">
        <use transform="matrix(0.05,0,0,0.05,0,0)" xlink:href="#T"/>
        <use transform="matrix(0.05,0,0,0.05,7,0)" xlink:href="#R"/>
        <use transform="matrix(0.05,0,0,0.05,23.6,0)" xlink:href="#Q"/>
        <use transform="matrix(0.05,0,0,0.05,33.6,0)" xlink:href="#ae"/>
        <use transform="matrix(0.05,0,0,0.05,43.6,0)" xlink:href="#K"/>
        <use transform="matrix(0.05,0,0,0.05,55.6,0)" xlink:href="#af"/>
        <use transform="matrix(0.05,0,0,0.05,65.6,0)" xlink:href="#af"/>
        <use transform="matrix(0.05,0,0,0.05,75.6,0)" xlink:href="#ag"/>
        <use transform="matrix(0.05,0,0,0.05,81.55,0)" xlink:href="#N"/>
        <use transform="matrix(0.05,0,0,0.05,94.5,0)" xlink:href="#U"/>
        <use transform="matrix(0.05,0,0,0.05,98.45,0)" xlink:href="#X"/>
        <use transform="matrix(0.05,0,0,0.05,102.4,0)" xlink:href="#Q"/>
        <use transform="matrix(0.05,0,0,0.05,112.4,0)" xlink:href="#Y"/>
        <use transform="matrix(0.05,0,0,0.05,122.4,0)" xlink:href="#ah"/>
      </g>
      <path d="M233-177c-1 41-23 64-60 70L243 0h-38l-65-103H63V0H30v-248c88 3 205-21 203 71zM63-129c60-2 137 13 137-47 0-61-80-42-137-45v92" id="ai"/>
      <g id="h">
        <use transform="matrix(0.05,0,0,0.05,0,0)" xlink:href="#N"/>
        <use transform="matrix(0.05,0,0,0.05,12.950000000000001,0)" xlink:href="#ai"/>
        <use transform="matrix(0.05,0,0,0.05,25.900000000000002,0)" xlink:href="#Z"/>
        <use transform="matrix(0.05,0,0,0.05,38.85,0)" xlink:href="#ab"/>
      </g>
      <g id="i">
        <use transform="matrix(0.05,0,0,0.05,0,0)" xlink:href="#L"/>
        <use transform="matrix(0.05,0,0,0.05,12,0)" xlink:href="#U"/>
        <use transform="matrix(0.05,0,0,0.05,15.949999999999998,0)" xlink:href="#V"/>
        <use transform="matrix(0.05,0,0,0.05,25.950000000000003,0)" xlink:href="#W"/>
        <use transform="matrix(0.05,0,0,0.05,35.95,0)" xlink:href="#X"/>
        <use transform="matrix(0.05,0,0,0.05,39.900000000000006,0)" xlink:href="#Y"/>
        <use transform="matrix(0.05,0,0,0.05,49.900000000000006,0)" xlink:href="#aa"/>
      </g>
      <g id="j">
        <use transform="matrix(0.05,0,0,0.05,0,0)" xlink:href="#N"/>
        <use transform="matrix(0.05,0,0,0.05,12.950000000000001,0)" xlink:href="#ai"/>
      </g>
      <path d="M240 0l2-218c-23 76-54 145-80 218h-23L58-218 59 0H30v-248h44l77 211c21-75 51-140 76-211h43V0h-30" id="aj"/>
      <path d="M141-36C126-15 110 5 73 4 37 3 15-17 15-53c-1-64 63-63 125-63 3-35-9-54-41-54-24 1-41 7-42 31l-33-3c5-37 33-52 76-52 45 0 72 20 72 64v82c-1 20 7 32 28 27v20c-31 9-61-2-59-35zM48-53c0 20 12 33 32 33 41-3 63-29 60-74-43 2-92-5-92 41" id="ak"/>
      <g id="k">
        <use transform="matrix(0.05,0,0,0.05,0,0)" xlink:href="#aj"/>
        <use transform="matrix(0.05,0,0,0.05,14.950000000000001,0)" xlink:href="#Q"/>
        <use transform="matrix(0.05,0,0,0.05,24.950000000000003,0)" xlink:href="#aa"/>
        <use transform="matrix(0.05,0,0,0.05,33.95,0)" xlink:href="#aa"/>
        <use transform="matrix(0.05,0,0,0.05,42.95,0)" xlink:href="#ak"/>
        <use transform="matrix(0.05,0,0,0.05,52.95,0)" xlink:href="#W"/>
        <use transform="matrix(0.05,0,0,0.05,62.95,0)" xlink:href="#Q"/>
        <use transform="matrix(0.05,0,0,0.05,72.95,0)" xlink:href="#aa"/>
      </g>
      <use transform="matrix(0.05,0,0,0.05,0,0)" xlink:href="#N" id="l"/>
      <use transform="matrix(0.05,0,0,0.05,0,0)" xlink:href="#ai" id="m"/>
      <g id="n">
        <use transform="matrix(0.05,0,0,0.05,0,0)" xlink:href="#Z"/>
        <use transform="matrix(0.05,0,0,0.05,12.950000000000001,0)" xlink:href="#aa"/>
        <use transform="matrix(0.05,0,0,0.05,21.950000000000003,0)" xlink:href="#Q"/>
        <use transform="matrix(0.05,0,0,0.05,31.950000000000003,0)" xlink:href="#P"/>
      </g>
      <path d="M85-194c31 0 48 13 60 33l-1-100h32l1 261h-30c-2-10 0-23-3-31C134-8 116 4 85 4 32 4 16-35 15-94c0-66 23-100 70-100zm9 24c-40 0-46 34-46 75 0 40 6 74 45 74 42 0 51-32 51-76 0-42-9-74-50-73" id="al"/>
      <g id="o">
        <use transform="matrix(0.05,0,0,0.05,0,0)" xlink:href="#aa"/>
        <use transform="matrix(0.05,0,0,0.05,9,0)" xlink:href="#Q"/>
        <use transform="matrix(0.05,0,0,0.05,19,0)" xlink:href="#Y"/>
        <use transform="matrix(0.05,0,0,0.05,29,0)" xlink:href="#al"/>
      </g>
      <path d="M0 4l72-265h28L28 4H0" id="am"/>
      <use transform="matrix(0.05,0,0,0.05,0,0)" xlink:href="#am" id="p"/>
      <g id="q">
        <use transform="matrix(0.05,0,0,0.05,0,0)" xlink:href="#P"/>
        <use transform="matrix(0.05,0,0,0.05,5.95,0)" xlink:href="#Q"/>
        <use transform="matrix(0.05,0,0,0.05,15.949999999999998,0)" xlink:href="#aa"/>
      </g>
      <g id="r">
        <use transform="matrix(0.05,0,0,0.05,0,0)" xlink:href="#aj"/>
        <use transform="matrix(0.05,0,0,0.05,14.950000000000001,0)" xlink:href="#Q"/>
        <use transform="matrix(0.05,0,0,0.05,24.950000000000003,0)" xlink:href="#aa"/>
        <use transform="matrix(0.05,0,0,0.05,33.95,0)" xlink:href="#aa"/>
        <use transform="matrix(0.05,0,0,0.05,42.95,0)" xlink:href="#ak"/>
        <use transform="matrix(0.05,0,0,0.05,52.95,0)" xlink:href="#W"/>
        <use transform="matrix(0.05,0,0,0.05,62.95,0)" xlink:href="#Q"/>
        <use transform="matrix(0.05,0,0,0.05,72.95,0)" xlink:href="#aa"/>
      </g>
      <g id="s">
        <use transform="matrix(0.05,0,0,0.05,0,0)" xlink:href="#N"/>
        <use transform="matrix(0.05,0,0,0.05,12.950000000000001,0)" xlink:href="#ai"/>
        <use transform="matrix(0.05,0,0,0.05,25.900000000000002,0)" xlink:href="#Z"/>
        <use transform="matrix(0.05,0,0,0.05,38.85,0)" xlink:href="#ab"/>
      </g>
      <g id="t">
        <use transform="matrix(0.05,0,0,0.05,0,0)" xlink:href="#Z"/>
        <use transform="matrix(0.05,0,0,0.05,12.950000000000001,0)" xlink:href="#aa"/>
        <use transform="matrix(0.05,0,0,0.05,21.950000000000003,0)" xlink:href="#Q"/>
        <use transform="matrix(0.05,0,0,0.05,31.950000000000003,0)" xlink:href="#P"/>
        <use transform="matrix(0.05,0,0,0.05,37.900000000000006,0)" xlink:href="#aa"/>
      </g>
      <g id="u">
        <use transform="matrix(0.05,0,0,0.05,0,0)" xlink:href="#Z"/>
        <use transform="matrix(0.05,0,0,0.05,12.950000000000001,0)" xlink:href="#aa"/>
        <use transform="matrix(0.05,0,0,0.05,21.950000000000003,0)" xlink:href="#Q"/>
        <use transform="matrix(0.05,0,0,0.05,31.950000000000003,0)" xlink:href="#P"/>
        <use transform="matrix(0.05,0,0,0.05,37.900000000000006,0)" xlink:href="#aa"/>
      </g>
      <g id="v">
        <use transform="matrix(0.05,0,0,0.05,0,0)" xlink:href="#aj"/>
        <use transform="matrix(0.05,0,0,0.05,14.950000000000001,0)" xlink:href="#Q"/>
        <use transform="matrix(0.05,0,0,0.05,24.950000000000003,0)" xlink:href="#aa"/>
        <use transform="matrix(0.05,0,0,0.05,33.95,0)" xlink:href="#aa"/>
        <use transform="matrix(0.05,0,0,0.05,42.95,0)" xlink:href="#ak"/>
        <use transform="matrix(0.05,0,0,0.05,52.95,0)" xlink:href="#W"/>
        <use transform="matrix(0.05,0,0,0.05,62.95,0)" xlink:href="#Q"/>
        <use transform="matrix(0.05,0,0,0.05,72.95,0)" xlink:href="#aa"/>
        <use transform="matrix(0.05,0,0,0.05,81.95,0)" xlink:href="#ab"/>
        <use transform="matrix(0.05,0,0,0.05,94.9,0)" xlink:href="#ac"/>
      </g>
      <path d="M96-169c-40 0-48 33-48 73s9 75 48 75c24 0 41-14 43-38l32 2c-6 37-31 61-74 61-59 0-76-41-82-99-10-93 101-131 147-64 4 7 5 14 7 22l-32 3c-4-21-16-35-41-35" id="an"/>
      <g id="w">
        <use transform="matrix(0.05,0,0,0.05,0,0)" xlink:href="#N"/>
        <use transform="matrix(0.05,0,0,0.05,12.950000000000001,0)" xlink:href="#O"/>
        <use transform="matrix(0.05,0,0,0.05,22.950000000000003,0)" xlink:href="#U"/>
        <use transform="matrix(0.05,0,0,0.05,26.900000000000002,0)" xlink:href="#U"/>
        <use transform="matrix(0.05,0,0,0.05,30.85,0)" xlink:href="#Q"/>
        <use transform="matrix(0.05,0,0,0.05,40.85,0)" xlink:href="#an"/>
        <use transform="matrix(0.05,0,0,0.05,49.85,0)" xlink:href="#ah"/>
        <use transform="matrix(0.05,0,0,0.05,54.85,0)" xlink:href="#X"/>
        <use transform="matrix(0.05,0,0,0.05,58.800000000000004,0)" xlink:href="#O"/>
        <use transform="matrix(0.05,0,0,0.05,68.80000000000001,0)" xlink:href="#Y"/>
      </g>
      <g id="x">
        <use transform="matrix(0.05,0,0,0.05,0,0)" xlink:href="#af"/>
        <use transform="matrix(0.05,0,0,0.05,10,0)" xlink:href="#P"/>
        <use transform="matrix(0.05,0,0,0.05,15.949999999999998,0)" xlink:href="#O"/>
      </g>
      <g id="y">
        <use transform="matrix(0.05,0,0,0.05,0,0)" xlink:href="#Z"/>
        <use transform="matrix(0.05,0,0,0.05,12.950000000000001,0)" xlink:href="#aa"/>
        <use transform="matrix(0.05,0,0,0.05,21.950000000000003,0)" xlink:href="#Q"/>
        <use transform="matrix(0.05,0,0,0.05,31.950000000000003,0)" xlink:href="#P"/>
      </g>
      <path d="M210-169c-67 3-38 105-44 169h-31v-121c0-29-5-50-35-48C34-165 62-65 56 0H25l-1-190h30c1 10-1 24 2 32 10-44 99-50 107 0 11-21 27-35 58-36 85-2 47 119 55 194h-31v-121c0-29-5-49-35-48" id="ao"/>
      <g id="z">
        <use transform="matrix(0.05,0,0,0.05,0,0)" xlink:href="#ao"/>
        <use transform="matrix(0.05,0,0,0.05,14.950000000000001,0)" xlink:href="#X"/>
        <use transform="matrix(0.05,0,0,0.05,18.900000000000002,0)" xlink:href="#ah"/>
      </g>
      <g id="A">
        <use transform="matrix(0.05,0,0,0.05,0,0)" xlink:href="#ak"/>
        <use transform="matrix(0.05,0,0,0.05,10,0)" xlink:href="#U"/>
        <use transform="matrix(0.05,0,0,0.05,13.949999999999998,0)" xlink:href="#U"/>
        <use transform="matrix(0.05,0,0,0.05,17.9,0)" xlink:href="#Q"/>
        <use transform="matrix(0.05,0,0,0.05,27.899999999999995,0)" xlink:href="#Y"/>
      </g>
      <g id="B">
        <use transform="matrix(0.05,0,0,0.05,0,0)" xlink:href="#aj"/>
        <use transform="matrix(0.05,0,0,0.05,14.950000000000001,0)" xlink:href="#Q"/>
        <use transform="matrix(0.05,0,0,0.05,24.950000000000003,0)" xlink:href="#aa"/>
        <use transform="matrix(0.05,0,0,0.05,33.95,0)" xlink:href="#aa"/>
        <use transform="matrix(0.05,0,0,0.05,42.95,0)" xlink:href="#ak"/>
        <use transform="matrix(0.05,0,0,0.05,52.95,0)" xlink:href="#W"/>
        <use transform="matrix(0.05,0,0,0.05,62.95,0)" xlink:href="#Q"/>
        <use transform="matrix(0.05,0,0,0.05,72.95,0)" xlink:href="#aa"/>
      </g>
      <g id="C">
        <use transform="matrix(0.05,0,0,0.05,0,0)" xlink:href="#Z"/>
        <use transform="matrix(0.05,0,0,0.05,12.950000000000001,0)" xlink:href="#aa"/>
        <use transform="matrix(0.05,0,0,0.05,21.950000000000003,0)" xlink:href="#Q"/>
        <use transform="matrix(0.05,0,0,0.05,31.950000000000003,0)" xlink:href="#P"/>
        <use transform="matrix(0.05,0,0,0.05,37.900000000000006,0)" xlink:href="#aa"/>
      </g>
      <g id="D">
        <use transform="matrix(0.05,0,0,0.05,0,0)" xlink:href="#N"/>
        <use transform="matrix(0.05,0,0,0.05,12.950000000000001,0)" xlink:href="#ab"/>
      </g>
      <g id="E">
        <use transform="matrix(0.05,0,0,0.05,0,0)" xlink:href="#Z"/>
        <use transform="matrix(0.05,0,0,0.05,12.950000000000001,0)" xlink:href="#aa"/>
        <use transform="matrix(0.05,0,0,0.05,21.950000000000003,0)" xlink:href="#Q"/>
        <use transform="matrix(0.05,0,0,0.05,31.950000000000003,0)" xlink:href="#P"/>
      </g>
      <g id="F">
        <use transform="matrix(0.05,0,0,0.05,0,0)" xlink:href="#ah"/>
        <use transform="matrix(0.05,0,0,0.05,5,0)" xlink:href="#O"/>
      </g>
      <g id="G">
        <use transform="matrix(0.05,0,0,0.05,0,0)" xlink:href="#L"/>
        <use transform="matrix(0.05,0,0,0.05,12,0)" xlink:href="#U"/>
        <use transform="matrix(0.05,0,0,0.05,15.949999999999998,0)" xlink:href="#V"/>
        <use transform="matrix(0.05,0,0,0.05,25.950000000000003,0)" xlink:href="#W"/>
        <use transform="matrix(0.05,0,0,0.05,35.95,0)" xlink:href="#X"/>
        <use transform="matrix(0.05,0,0,0.05,39.900000000000006,0)" xlink:href="#Y"/>
      </g>
      <path d="M137-103V0h-34v-103L8-248h37l75 118 75-118h37" id="ap"/>
      <g id="H">
        <use transform="matrix(0.05,0,0,0.05,0,0)" xlink:href="#K"/>
        <use transform="matrix(0.05,0,0,0.05,12,0)" xlink:href="#aj"/>
        <use transform="matrix(0.05,0,0,0.05,26.950000000000003,0)" xlink:href="#ap"/>
      </g>
      <use transform="matrix(0.05,0,0,0.05,0,0)" xlink:href="#ag" id="I"/>
      <g id="J">
        <use transform="matrix(0.05,0,0,0.05,0,0)" xlink:href="#N"/>
        <use transform="matrix(0.05,0,0,0.05,12.950000000000001,0)" xlink:href="#U"/>
        <use transform="matrix(0.05,0,0,0.05,16.900000000000002,0)" xlink:href="#O"/>
        <use transform="matrix(0.05,0,0,0.05,26.900000000000002,0)" xlink:href="#V"/>
        <use transform="matrix(0.05,0,0,0.05,36.900000000000006,0)" xlink:href="#V"/>
        <use transform="matrix(0.05,0,0,0.05,46.900000000000006,0)" xlink:href="#V"/>
        <use transform="matrix(0.05,0,0,0.05,56.900000000000006,0)" xlink:href="#al"/>
      </g>
    </defs>
  </g>
</svg>
