<?xml version="1.0" encoding="UTF-8" standalone="no"?>
<!DOCTYPE svg PUBLIC "-//W3C//DTD SVG 1.1//EN" "http://www.w3.org/Graphics/SVG/1.1/DTD/svg11.dtd">
<svg width="100%" height="100%" viewBox="0 0 2481 3508" version="1.1" xmlns="http://www.w3.org/2000/svg" xmlns:xlink="http://www.w3.org/1999/xlink" xml:space="preserve" xmlns:serif="http://www.serif.com/" style="fill-rule:evenodd;clip-rule:evenodd;stroke-linejoin:round;stroke-miterlimit:1.41421;">
    <g transform="matrix(1,0,0,1,283.332,-356.268)">
        <circle cx="944.806" cy="1030.61" r="506.517" style="fill:rgb(235,235,235);"/>
    </g>
    <g transform="matrix(1,0,0,1,288.236,717.297)">
        <circle cx="944.806" cy="1030.61" r="506.517" style="fill:rgb(235,235,235);"/>
    </g>
    <g transform="matrix(1,0,0,1,283.332,1784.54)">
        <circle cx="944.806" cy="1030.61" r="506.517" style="fill:rgb(0,206,9);"/>
    </g>
</svg>
